<?xml version="1.0" encoding="utf-8"?>
<!-- Generator: Adobe Illustrator 21.0.0, SVG Export Plug-In . SVG Version: 6.00 Build 0)  -->
<svg version="1.1" id="Layer_1" xmlns="http://www.w3.org/2000/svg" xmlns:xlink="http://www.w3.org/1999/xlink" x="0px" y="0px"
	 width="32px" height="32px" viewBox="0 0 32 32" style="enable-background:new 0 0 32 32;" xml:space="preserve">
<style type="text/css">
	.st0{fill:#FFFFFF;}
</style>
<path class="st0" d="M15.4,28.1c-1.1-0.1-2.9-0.2-4.7-0.3c-1.5-0.1-2.9-0.4-4.3-1c-0.2,0-0.4-0.2-0.3-0.5c0.1-1.6,0.6-3.1,1.6-4.4
	c0.5-0.6,1.1-1,1.7-1.3c1-0.4,2-0.8,2.9-1.3c0.1-0.1,0.3-0.1,0.4,0.1c0,0,0,0,0,0c0.6,0.8,1.4,1.4,2.4,1.6c1.3,0.3,2.6-0.1,3.5-1
	c0.2-0.2,0.4-0.4,0.6-0.6c0.1-0.1,0.2-0.2,0.3-0.1c0,0,0,0,0,0l2.9,1.2c1.4,0.6,2.4,1.7,2.9,3.1c0.3,0.8,0.5,1.6,0.5,2.4
	c0,0.4,0,0.5-0.4,0.7c-1.1,0.4-2.2,0.7-3.3,0.8C19.9,28,17.7,28.1,15.4,28.1z M20.3,13c0,0.1,0,0.2,0,0.4c0,0.2,0,0.4,0.2,0.6
	c0.2,0.4,0.3,0.8,0.2,1.2c-0.1,0.8-0.5,1.6-1,2.3c-0.1,0.1-0.2,0.3-0.3,0.5c-0.4,1.3-1.4,2.3-2.6,2.7c-1.1,0.3-2.2,0-3-0.8
	c-0.6-0.5-1-1.2-1.2-1.9c-0.1-0.2-0.2-0.4-0.3-0.5c-0.7-0.7-1-1.6-1-2.6c-0.1-0.4,0.1-0.8,0.4-1.1c0.1-0.1,0.1-0.2,0.1-0.4
	c0-0.6,0-1.2,0.1-1.8c0.2-1.6,1.4-2.8,3-3.1c1.2-0.3,2.5-0.1,3.7,0.4c0.5,0.3,0.9,0.8,1,1.4c0,0.1,0,0.2,0.1,0.2
	c0.5,0.7,0.8,1.5,0.7,2.4C20.3,12.9,20.3,12.9,20.3,13z M21.4,16.3c0.1-0.5,0.1-1.1,0.1-1.6c0-0.4-0.1-0.7-0.2-1.1
	c-0.1-0.2-0.1-0.5-0.1-0.7c0-0.9-0.2-1.9-0.7-2.7c-0.1-0.1-0.1-0.1-0.1-0.2c-0.4-1.2-1.3-2-2.5-2.3c-0.3-0.1-0.6-0.1-0.9-0.2
	c0.1-1,0.5-1.9,1.2-2.6c1-0.8,2.2-1.2,3.5-1c0.7,0,1.4,0.2,2,0.6c0.6,0.3,0.9,0.8,1.1,1.4c0,0.1,0,0.2,0.1,0.3
	c0.5,0.5,0.7,1.2,0.7,2c0,0.2,0,0.4,0,0.7c0,0.3,0,0.6,0.2,0.8c0.2,0.4,0.3,0.9,0.2,1.3c-0.1,0.8-0.5,1.5-1,2.1
	c-0.1,0.2-0.2,0.3-0.3,0.5c-0.4,1.3-1.4,2.3-2.7,2.7c-0.1,0-0.3,0.1-0.4,0.1C21.5,16.3,21.5,16.3,21.4,16.3z M15,7.4
	c-0.6,0.2-1.3,0.5-1.9,0.8c-1.4,0.8-2.2,2.2-2.2,3.8c0,0.4,0,0.7-0.1,1.1c0,0.2-0.1,0.4-0.2,0.6c-0.3,0.7-0.3,1.4-0.1,2.1
	c0,0.2,0.1,0.3,0.2,0.6c-0.2,0-0.4-0.1-0.6-0.1c-1.3-0.4-2.3-1.4-2.7-2.8c-0.1-0.2-0.1-0.3-0.3-0.5c-0.8-0.8-1.2-2-1-3.1
	c0-0.1,0.1-0.3,0.2-0.4c0.2-0.2,0.3-0.4,0.2-0.6c0-0.5,0-1.1,0.1-1.6C6.7,5.4,8.2,4.1,10,3.9c1-0.1,2.1,0,3.1,0.4
	c0.7,0.3,1.1,0.8,1.3,1.5c0,0.1,0.1,0.2,0.2,0.3C14.8,6.5,14.9,6.9,15,7.4z M5.8,23.5c-1.5-0.1-3.1-0.5-4.5-1
	c-0.3-0.1-0.4-0.3-0.4-0.6c0.1-1.4,0.5-2.7,1.2-3.8c0.4-0.7,1-1.2,1.7-1.5C5,16,6.1,15.5,7.3,15c0.2-0.1,0.2,0,0.3,0.1
	c0.6,0.9,1.5,1.5,2.6,1.7c0,0,0.1,0,0.1,0c0.6-0.1,0.9,0.3,1.1,0.7c0.2,0.5,0.4,0.7,0.7,1.1c-0.3,0.1-0.6,0.2-0.9,0.4
	c-0.8,0.3-1.6,0.7-2.3,1c-1.3,0.7-2.3,1.8-2.9,3.1L5.8,23.5L5.8,23.5z M26.2,23.5L26,23c-0.6-1.4-1.7-2.5-3.1-3.1
	c-0.8-0.4-1.7-0.7-2.5-1.1L20,18.6c0.2-0.4,0.4-0.7,0.6-1c0.2-0.3,0.3-0.4,0.5-0.6c0-0.1,0.1-0.1,0.2-0.1c1.4-0.1,2.6-0.8,3.4-1.9
	l0.7,0.3l2.4,1c1.4,0.6,2.5,1.7,2.9,3.1c0.3,0.8,0.5,1.6,0.5,2.4c0,0.5,0,0.5-0.5,0.7c-1.2,0.4-2.4,0.7-3.6,0.9L26.2,23.5z"/>
</svg>
