{
    "GYMCODE":"BETA",    
    "EXCE_API": {
        "LOGIN": "http://unicornexc/ExcelineLoginRest/",
        "COMMON": "http://unicornexc/ExcelineCommonRest/",
        "MEMBER": "http://unicornexc/ExcelineMemberRest/api/Member",
        "ADMIN": "http://unicornexc/ExcelineAdminRest/api/Admin/",
        "NOTIFICATION": "http://unicornexc/ExcelineCommonNotificationRestAPI/api/Notification/",
        "SHOP": "http://unicornexc/ExcelineShopRest/api/",
        "USSADMIN": "http://unicornexc/ExcelineUSSAdminRest/api/Admin/",
        "CLASS": "http://unicornexc/ExcelineClassRest/api/Class/",
        "REPORTING": "http://unicornexc/ExcelineReportingRest/api/Report/",
        "ECONOMY": "http://unicornexc/ExcelineEconomyRest/",

        "LOGIN1": "http://dev.exceline.net/ExcelineLoginRest/",
        "COMMON1": "http://dev.exceline.net/ExcelineCommonRest/",
        "MEMBER1": "http://dev.exceline.net/ExcelineMemberRest/api/Member",
        "ADMIN1": "http://dev.exceline.net/ExcelineAdminRest/api/Admin/",
        "NOTIFICATION1": "http://dev.exceline.net/ExcelineNotificationRest/api/Notification/",
        "SHOP1": "http://dev.exceline.net/ExcelineShopRest/api/",
        "USSADMIN1": "http://dev.exceline.net/UsssAdminRest/api/Admin/",
        "CLASS1": "http://dev.exceline.net/ExcelineClassRest/api/Class/",
        "REPORTING1": "http://dev.exceline.net/ExcelineReportingRest/api/Report/"
    },
    "COOKIE_EXPIRATION": {
        "DAYS": "10"
    },
    "ENV": "DEV",
    "RUNTIME_VARIABLES":{
        "BrisIntegration": "1",
        "Bris_Integration_ApiKey": "AXY6x6M7drueSV0EcwTJEAqcKtSjGiwO"
    }
}
