<?xml version="1.0" encoding="utf-8"?>
<!-- Generator: Adobe Illustrator 21.0.0, SVG Export Plug-In . SVG Version: 6.00 Build 0)  -->
<svg version="1.1" id="Layer_1" xmlns="http://www.w3.org/2000/svg" xmlns:xlink="http://www.w3.org/1999/xlink" x="0px" y="0px"
	 width="32px" height="32px" viewBox="0 0 32 32" style="enable-background:new 0 0 32 32;" xml:space="preserve">
<style type="text/css">
	.st0{fill:#FFFFFF;}
</style>
<path class="st0" d="M0.8,9.6C1,8.9,1.7,8.5,2.4,8.7c0.3,0,0.5,0,0.7,0s0.3-0.1,0.3-0.3c0-0.7,0-1.4,0-2.1C3.4,5.6,4,5,4.7,5C5,5,5.2,5,5.5,5.1
	c0-0.2,0-0.4,0-0.6C5.4,3.7,6,3.1,6.8,3c0.3,0,0.6,0.1,0.8,0.2c0.4,0.3,0.7,0.8,0.7,1.3c0,1.3,0,2.5,0,3.8c0,0.1,0,0.2,0,0.3h3
	c0,0.3,0,0.5,0,0.8c0,0.1,0,0.1-0.1,0.2c-0.4,0.4-0.8,0.8-1.2,1.2C9.9,11,9.8,11,9.7,11c-0.5,0-0.9,0-1.4,0c0,0.1,0,0.2,0,0.3
	c0,1.3,0,2.5,0,3.8c0.1,0.7-0.3,1.3-1,1.5c-0.7,0.2-1.5-0.2-1.7-0.9c0-0.1-0.1-0.2-0.1-0.4c0-0.2,0-0.5,0-0.7l-0.2,0.1
	c-0.7,0.3-1.5-0.1-1.8-0.8c-0.1-0.2-0.1-0.3-0.1-0.5c0-0.7,0-1.4,0-2.1c0-0.1,0-0.2,0-0.3H2.1c-0.5,0-1.1-0.3-1.2-0.8
	c0,0,0-0.1-0.1-0.1V9.6z M31.2,10.1c-0.1,0.2-0.2,0.4-0.4,0.6c-0.2,0.2-0.6,0.3-0.9,0.3h-1.7c0,0.1,0,0.2,0,0.3c0,0.6,0,1.3,0,1.9
	c0.1,0.8-0.4,1.5-1.2,1.6c-0.3,0-0.5,0-0.8-0.1c0,0-0.1,0-0.1,0c0,0.2,0,0.4,0,0.7c0,0.7-0.6,1.3-1.4,1.3c-0.7,0-1.3-0.5-1.4-1.3
	c0,0,0,0,0,0c0-1.3,0-2.7,0-4c0-0.1,0-0.2,0-0.3H23V8.7h0.1c0.4,0,0.4,0,0.4-0.4c0-1.2,0-2.5,0-3.7c0-0.8,0.5-1.4,1.3-1.4
	c0.7,0,1.3,0.5,1.4,1.2c0,0.3,0,0.5,0,0.8c0.2,0,0.3-0.1,0.4-0.1c0.7-0.2,1.5,0.3,1.6,1.1c0,0.1,0,0.2,0,0.3c0,0.7,0,1.4,0,2.1
	c0,0.2,0.1,0.3,0.2,0.2c0.5,0,1,0,1.4,0c0.6-0.1,1.1,0.3,1.3,0.9c0,0,0,0,0,0.1L31.2,10.1z M12.5,18c2.4-2.2,6.1-2.2,8.5,0
	c0,0,0,0,0-0.1c0-0.4,0.1-0.9,0.2-1.3c0.2-0.6,0.4-1.2,0.6-1.9c0.3-0.7,0.3-1.4,0.1-2.1c0-0.1-0.1-0.3-0.1-0.4c0-1.4,0-2.8,0-4.2
	c0-0.4,0-0.7,0-1.1c0-0.4-0.3-0.8-0.7-0.9c-0.5-0.2-1.1,0-1.4,0.5c-0.1,0.1-0.1,0.3-0.1,0.4c0,0.9,0,1.8,0,2.6c0,0.1,0,0.2,0,0.3
	h-0.2c-1.1-0.3-2.4-0.2-3.4,0.3c-0.9,0.4-1.3,1.4-0.9,2.3c0.1,0.1,0.1,0.2,0.2,0.3c0.1,0.1,0.2,0.3,0.3,0.4
	c-0.7-0.4-1.3-0.9-1.8-1.6c0-0.1,0-0.2,0-0.3c0.4-0.5,0.7-1,1.2-1.5c0.3-0.4,0.7-0.6,1.2-0.5c0.7,0,1.4,0,2.2,0c0.4,0,0.9-0.2,1-0.7
	c0.2-0.4,0.1-0.9-0.2-1.2c-0.1-0.1-0.1-0.2-0.1-0.3c0-0.5,0-0.9,0-1.4c0-0.3-0.1-0.6-0.3-0.7C18.4,4.9,18,4.8,17.6,5
	c-0.4,0.2-0.6,0.5-0.6,1c0,0.4,0,0.8,0,1.2c0,0.1-0.1,0.1-0.1,0.2h-0.1c0-0.5,0-0.9,0-1.4c0-0.6-0.4-1.1-1-1.1c-0.6,0-1.1,0.4-1.1,1
	c0,0.1,0,0.1,0,0.2c0,0.4,0,0.8,0,1.3c0,0.2,0,0.2-0.2,0.2c0-0.2,0-0.4,0-0.7c0-0.6,0-1.1,0-1.7c-0.1-0.6-0.6-0.9-1.1-0.9
	c0,0,0,0,0,0c-0.5,0.1-0.9,0.6-0.9,1.1c0,1.3,0,2.7,0,4c0,0.2-0.1,0.3-0.2,0.4c-0.6,0.6-1.1,1.2-1.7,1.8c-0.6,0.8-0.7,1.9-0.2,2.7
	c0.4,0.6,0.9,1.2,1.3,1.8C12.1,16.7,12.3,17.3,12.5,18z M16.2,28.2c-0.1-0.2-0.2-0.3-0.3-0.5c0-0.1-0.1-0.1-0.1-0.2
	c-0.2-0.6-0.6-0.8-1.1-0.9c-0.1,0-0.2,0-0.3,0c-0.2,0.1-0.5,0.2-0.7,0.3c-0.2,0.1-0.4,0.1-0.6-0.1c-0.1-0.1-0.2-0.2-0.3-0.3
	c-0.2-0.2-0.2-0.4-0.1-0.6c0.1-0.2,0.2-0.5,0.3-0.8c0.1-0.4-0.2-1-0.5-1.2c-0.2-0.1-0.5-0.2-0.7-0.3c-0.2-0.1-0.3-0.2-0.3-0.5
	c0-0.1,0-0.3,0-0.4c0-0.3,0.1-0.4,0.3-0.5c0.3-0.1,0.6-0.2,0.8-0.3c0.4-0.2,0.6-0.8,0.5-1.2c-0.1-0.2-0.2-0.5-0.3-0.7
	c-0.1-0.2-0.1-0.4,0.1-0.6c0.1-0.1,0.2-0.2,0.3-0.3c0.2-0.2,0.3-0.2,0.6-0.1c0.3,0.1,0.6,0.3,0.9,0.3c0.3,0.1,0.9-0.2,1.1-0.5
	c0.1-0.3,0.2-0.5,0.3-0.8c0.1-0.2,0.2-0.4,0.5-0.4c0.2,0,0.3,0,0.5,0c0.2,0,0.4,0.1,0.5,0.3c0.1,0.3,0.2,0.5,0.3,0.8
	c0.2,0.4,0.8,0.6,1.3,0.5c0.2-0.1,0.5-0.2,0.7-0.3c0.3-0.1,0.4-0.1,0.6,0.1c0.1,0.1,0.2,0.2,0.3,0.3c0.2,0.2,0.2,0.3,0.1,0.6
	c-0.1,0.3-0.2,0.5-0.3,0.8c-0.1,0.3,0.1,0.9,0.4,1.1c0.3,0.1,0.5,0.2,0.8,0.4c0.1,0.1,0.2,0.1,0.3,0.2c0,0.3,0,0.7,0,1
	c-0.1,0.1-0.2,0.1-0.4,0.2c-0.3,0.1-0.5,0.2-0.8,0.4c-0.3,0.2-0.5,0.8-0.4,1.1c0.1,0.3,0.2,0.5,0.3,0.8c0.1,0.2,0.1,0.4-0.1,0.6
	c-0.1,0.1-0.2,0.2-0.3,0.3c-0.2,0.2-0.3,0.2-0.6,0.1c-0.2-0.1-0.3-0.2-0.5-0.2c-0.2-0.1-0.4-0.2-0.6-0.1c-0.5,0.1-0.9,0.2-1.1,0.7
	c-0.1,0.2-0.1,0.3-0.2,0.5c-0.1,0.1-0.2,0.3-0.2,0.4C16.9,28.2,16.5,28.2,16.2,28.2z M19.3,22.9c0-1.4-1.2-2.7-2.6-2.7
	c-1.5,0-2.7,1.2-2.7,2.6c0,1.5,1.2,2.7,2.6,2.7C18.1,25.6,19.3,24.4,19.3,22.9z M15.1,22.9c0,0.9,0.7,1.6,1.6,1.6
	c0.9,0,1.6-0.7,1.6-1.6c0-0.9-0.7-1.6-1.6-1.6C15.8,21.3,15.1,22,15.1,22.9z"/>
</svg>
